{
  "platforms": {
    "ios": null
  }, 
  "weak_frameworks": [], 
  "libraries": [], 
  "name": "StoreFrontOWF", 
  "requires_arc": true, 
  "preserve_paths": [], 
  "frameworks": [], 
  "vendored_frameworks": [
    "StoreFrontOWF.framework"
  ], 
  "source": {
    "http": "https://fuse-builds.s3.amazonaws.com/StoreFrontOWF/StoreFrontOWF-ios-0.7.11.zip"
  }, 
  "version": "0.7.11", 
  "source_files": []
}