{
  "platforms": {
    "ios": null
  }, 
  "weak_frameworks": [], 
  "libraries": [], 
  "name": "StoreFrontAA", 
  "requires_arc": true, 
  "preserve_paths": [], 
  "frameworks": [], 
  "vendored_frameworks": [
    "StoreFrontAA.framework"
  ], 
  "source": {
    "http": "https://fuse-builds.s3.amazonaws.com/StoreFrontAA/StoreFrontAA-ios-0.1.27.zip"
  }, 
  "version": "0.1.27", 
  "source_files": []
}