{
  "name": "StoreFrontKLF",
  "version": "0.8.12",
  "platforms": {
    "ios": null
  },
  "vendored_frameworks": [
    "StoreFrontKLF.framework"
  ],
  "source_files": [],
  "preserve_paths": [],
  "weak_frameworks": [],
  "frameworks": [],
  "libraries": [],
  "requires_arc": true,
  "source": {
    "http": "https://fuse-builds.s3.amazonaws.com/StoreFrontKLF/StoreFrontKLF-ios-0.8.12.zip"
  }
}